Chapter 3 R Tidyverse Programming Basics | Hydroinformatics at VT
…
3.9 Arrange

Arrange sorts by a column in your dataset.

Sort the rbi data by the RBI column in ascending and then descending order

arrange(rbi, RBI)

## # A tibble: 49 x 26
##    site_no    RBI RBIrank STANAME DRAIN_SQKM HUC02 LAT_GAGE LNG_GAGE STATE CLASS
##      <dbl>  <dbl>   <dbl> <chr>        <dbl> <dbl>    <dbl>    <dbl> <chr> <chr>
##  1 1305500 0.0464      18 SWAN R…       21.3     2     40.8    -73.0 NY    Non-…
##  2 1013500 0.0584      35 Fish R…     2253.      1     47.2    -68.6 ME    Ref  
##  3 1306460 0.0587      37 CONNET…       55.7     2     40.8    -73.2 NY    Non-…
##  4 1030500 0.114      147 Mattaw…     3676.      1     45.5    -68.3 ME    Ref  
##  5 1029200 0.132      183 Seboei…      445.      1     46.1    -68.6 ME    Ref  
##  6 1117468 0.172      244 BEAVER…       25.3     1     41.5    -71.6 RI    Ref  
##  7 1022500 0.198      286 Narrag…      574.      1     44.6    -67.9 ME    Ref  
##  8 1021480 0.208      300 Old St…       76.7     1     44.9    -67.7 ME    Ref  
##  9 1162500 0.213      311 PRIEST…       49.7     1     42.7    -72.1 MA    Ref  
## 10 1117370 0.230      338 QUEEN …       50.5     1     41.5    -71.6 RI    Ref  
## # … with 39 more rows, and 16 more variables: AGGECOREGION <chr>,
## #   PPTAVG_BASIN <dbl>, PPTAVG_SITE <dbl>, T_AVG_BASIN <dbl>, T_AVG_SITE <dbl>,
## #   T_MAX_BASIN <dbl>, T_MAXSTD_BASIN <dbl>, T_MAX_SITE <dbl>,
## #   T_MIN_BASIN <dbl>, T_MINSTD_BASIN <dbl>, T_MIN_SITE <dbl>, PET <dbl>,
## #   SNOW_PCT_PRECIP <dbl>, PRECIP_SEAS_IND <dbl>, FLOWYRS_1990_2009 <dbl>,
## #   wy00_09 <dbl>

arrange(rbi, desc(RBI))

## # A tibble: 49 x 26
##    site_no   RBI RBIrank STANAME DRAIN_SQKM HUC02 LAT_GAGE LNG_GAGE STATE CLASS
##      <dbl> <dbl>   <dbl> <chr>        <dbl> <dbl>    <dbl>    <dbl> <chr> <chr>
##  1 1311500 0.856    1017 VALLEY…       18.1     2     40.7    -73.7 NY    Non-…
##  2 1054200 0.492     805 Wild R…      181       1     44.4    -71.0 ME    Ref  
##  3 1187300 0.487     800 HUBBAR…       53.9     1     42.0    -72.9 MA    Ref  
##  4 1105600 0.484     797 OLD SW…       12.7     1     42.2    -70.9 MA    Non-…
##  5 1055000 0.450     762 Swift …      251.      1     44.6    -70.6 ME    Ref  
##  6 1195100 0.430     744 INDIAN…       14.8     1     41.3    -72.5 CT    Ref  
##  7 1181000 0.420     732 WEST B…      244.      1     42.2    -72.9 MA    Ref  
##  8 1350000 0.414     721 SCHOHA…      612.      2     42.3    -74.4 NY    Ref  
##  9 1121000 0.404     710 MOUNT …       70.3     1     41.8    -72.2 CT    Ref  
## 10 1169000 0.395     688 NORTH …      231.      1     42.6    -72.7 MA    Ref  
## # … with 39 more rows, and 16 more variables: AGGECOREGION <chr>,
## #   PPTAVG_BASIN <dbl>, PPTAVG_SITE <dbl>, T_AVG_BASIN <dbl>, T_AVG_SITE <dbl>,
## #   T_MAX_BASIN <dbl>, T_MAXSTD_BASIN <dbl>, T_MAX_SITE <dbl>,
## #   T_MIN_BASIN <dbl>, T_MINSTD_BASIN <dbl>, T_MIN_SITE <dbl>, PET <dbl>,
## #   SNOW_PCT_PRECIP <dbl>, PRECIP_SEAS_IND <dbl>, FLOWYRS_1990_2009 <dbl>,
## #   wy00_09 <dbl>

3.10 Select

There are too many columns! You will often want to do this when you are manipulating the structure of your data and need to trim it down to only include what you will use.

Select Site name, state, and RBI from the rbi data

Note they come back in the order you put them in in the function, not the order they were in in the original data.

You can do a lot more with select, especially when you need to select a bunch of columns but don’t want to type them all out. But we don’t need to cover all that today. For a taste though, if you want to select a group of columns you can specify the first and last with a colon in between (first:last) and it’ll return all of them. Select the rbi columns from site_no to DRAIN_SQKM.

select(rbi, STANAME, STATE, RBI)

## # A tibble: 49 x 3
##    STANAME                                      STATE    RBI
##    <chr>                                        <chr>  <dbl>
##  1 Fish River near Fort Kent, Maine             ME    0.0584
##  2 Old Stream near Wesley, Maine                ME    0.208 
##  3 Narraguagus River at Cherryfield, Maine      ME    0.198 
##  4 Seboeis River near Shin Pond, Maine          ME    0.132 
##  5 Mattawamkeag River near Mattawamkeag, Maine  ME    0.114 
##  6 Piscataquis River at Blanchard, Maine        ME    0.297 
##  7 Piscataquis River near Dover-Foxcroft, Maine ME    0.320 
##  8 Ducktrap River near Lincolnville, Maine      ME    0.318 
##  9 Spencer Stream near Grand Falls, Maine       ME    0.242 
## 10 Carrabassett River near North Anson, Maine   ME    0.344 
## # … with 39 more rows

select(rbi, site_no:DRAIN_SQKM)

## # A tibble: 49 x 5
##    site_no    RBI RBIrank STANAME                                     DRAIN_SQKM
##      <dbl>  <dbl>   <dbl> <chr>                                            <dbl>
##  1 1013500 0.0584      35 Fish River near Fort Kent, Maine                2253. 
##  2 1021480 0.208      300 Old Stream near Wesley, Maine                     76.7
##  3 1022500 0.198      286 Narraguagus River at Cherryfield, Maine          574. 
##  4 1029200 0.132      183 Seboeis River near Shin Pond, Maine              445. 
##  5 1030500 0.114      147 Mattawamkeag River near Mattawamkeag, Maine     3676. 
##  6 1031300 0.297      489 Piscataquis River at Blanchard, Maine            304. 
##  7 1031500 0.320      545 Piscataquis River near Dover-Foxcroft, Mai…      769  
##  8 1037380 0.318      537 Ducktrap River near Lincolnville, Maine           39  
##  9 1044550 0.242      360 Spencer Stream near Grand Falls, Maine           500. 
## 10 1047000 0.344      608 Carrabassett River near North Anson, Maine       909. 
## # … with 39 more rows

3.11 Mutate

Use mutate to add new columns based on additional ones. Common uses are to create a column of data in different units, or to calculate something based on two columns. You can also use it to just update a column, by naming the new column the same as the original one (but be careful because you’ll lose the original one!). I commonly use this when I am changing the datatype of a column, say from a character to a factor or a string to a date.

Create a new column in rbi called T_RANGE by subtracting T_MIN_SITE from T_MAX_SITE

mutate(rbi, T_RANGE = T_MAX_SITE - T_MIN_SITE)

## # A tibble: 49 x 27
##    site_no    RBI RBIrank STANAME DRAIN_SQKM HUC02 LAT_GAGE LNG_GAGE STATE CLASS
##      <dbl>  <dbl>   <dbl> <chr>        <dbl> <dbl>    <dbl>    <dbl> <chr> <chr>
##  1 1013500 0.0584      35 Fish R…     2253.      1     47.2    -68.6 ME    Ref  
##  2 1021480 0.208      300 Old St…       76.7     1     44.9    -67.7 ME    Ref  
##  3 1022500 0.198      286 Narrag…      574.      1     44.6    -67.9 ME    Ref  
##  4 1029200 0.132      183 Seboei…      445.      1     46.1    -68.6 ME    Ref  
##  5 1030500 0.114      147 Mattaw…     3676.      1     45.5    -68.3 ME    Ref  
##  6 1031300 0.297      489 Piscat…      304.      1     45.3    -69.6 ME    Ref  
##  7 1031500 0.320      545 Piscat…      769       1     45.2    -69.3 ME    Ref  
##  8 1037380 0.318      537 Ducktr…       39       1     44.3    -69.1 ME    Ref  
##  9 1044550 0.242      360 Spence…      500.      1     45.3    -70.2 ME    Ref  
## 10 1047000 0.344      608 Carrab…      909.      1     44.9    -70.0 ME    Ref  
## # … with 39 more rows, and 17 more variables: AGGECOREGION <chr>,
## #   PPTAVG_BASIN <dbl>, PPTAVG_SITE <dbl>, T_AVG_BASIN <dbl>, T_AVG_SITE <dbl>,
## #   T_MAX_BASIN <dbl>, T_MAXSTD_BASIN <dbl>, T_MAX_SITE <dbl>,
## #   T_MIN_BASIN <dbl>, T_MINSTD_BASIN <dbl>, T_MIN_SITE <dbl>, PET <dbl>,
## #   SNOW_PCT_PRECIP <dbl>, PRECIP_SEAS_IND <dbl>, FLOWYRS_1990_2009 <dbl>,
## #   wy00_09 <dbl>, T_RANGE <dbl>

When downloading data from the USGS through R, you have to enter the gage ID as a character, even though they are all made up of numbers. So to practice doing this, update the site_no column to be a character datatype

mutate(rbi, site_no = as.character(site_no))

## # A tibble: 49 x 26
##    site_no    RBI RBIrank STANAME DRAIN_SQKM HUC02 LAT_GAGE LNG_GAGE STATE CLASS
##    <chr>    <dbl>   <dbl> <chr>        <dbl> <dbl>    <dbl>    <dbl> <chr> <chr>
##  1 1013500 0.0584      35 Fish R…     2253.      1     47.2    -68.6 ME    Ref  
##  2 1021480 0.208      300 Old St…       76.7     1     44.9    -67.7 ME    Ref  
##  3 1022500 0.198      286 Narrag…      574.      1     44.6    -67.9 ME    Ref  
##  4 1029200 0.132      183 Seboei…      445.      1     46.1    -68.6 ME    Ref  
##  5 1030500 0.114      147 Mattaw…     3676.      1     45.5    -68.3 ME    Ref  
##  6 1031300 0.297      489 Piscat…      304.      1     45.3    -69.6 ME    Ref  
##  7 1031500 0.320      545 Piscat…      769       1     45.2    -69.3 ME    Ref  
##  8 1037380 0.318      537 Ducktr…       39       1     44.3    -69.1 ME    Ref  
##  9 1044550 0.242      360 Spence…      500.      1     45.3    -70.2 ME    Ref  
## 10 1047000 0.344      608 Carrab…      909.      1     44.9    -70.0 ME    Ref  
## # … with 39 more rows, and 16 more variables: AGGECOREGION <chr>,
## #   PPTAVG_BASIN <dbl>, PPTAVG_SITE <dbl>, T_AVG_BASIN <dbl>, T_AVG_SITE <dbl>,
## #   T_MAX_BASIN <dbl>, T_MAXSTD_BASIN <dbl>, T_MAX_SITE <dbl>,
## #   T_MIN_BASIN <dbl>, T_MINSTD_BASIN <dbl>, T_MIN_SITE <dbl>, PET <dbl>,
## #   SNOW_PCT_PRECIP <dbl>, PRECIP_SEAS_IND <dbl>, FLOWYRS_1990_2009 <dbl>,
## #   wy00_09 <dbl>
…
